## Interface: 90205
## LoadOnDemand: 1
## Title: Lib: DualSpec-1.0
## Version: v1.15
## X-Date: 2020-01-14T19:03:43Z
## Notes: Adds spec switching support to individual AceDB-3.0 databases.
## Author: Adirelle
## OptionalDeps: Ace3

LibStub.lua
LibDualSpec-1.0.lua
